250,12.31212,2.68462
1000,55.69734,7.11458
1000,63.99118,6.10837
2000,175.53107,17.53695
100,4.01436,1.43414
250,12.34227,2.49971
500,23.29674,3.07988
1000,51.57172,5.44039
2000,129.64154,18.85249
3000,184.54344,31.36096
100,4.01533,1.14244
250,10.78089,1.97926
500,22.98202,3.04689
1000,48.79746,5.99821
750,46.33912,5.78649
1200,70.75527,7.98451
4000,368.45718,58.20609
1000,53.47652,8.27901
500,27.14661,3.95511
1000,54.70748,6.81542
1500,104.41123,14.37384
500,21.99533,3.43098
1000,49.13345,6.40299
1500,90.08428,13.19616

